build/tb_top.vcd
$date
	Sun Apr 19 15:56:15 2026
$end
$version
	QuestaSim Version 10.7c
$end
$timescale
	1ps
$end

$scope module tb_top $end

$scope function dut_status_word $end
$upscope $end

$scope task wait_ms $end
$upscope $end

$scope task press_btn_wdi $end
$upscope $end

$scope task hold_btn_en_low $end
$upscope $end

$scope task release_btn_en $end
$upscope $end

$scope task uart_write32 $end
$upscope $end

$scope task uart_write16 $end
$upscope $end

$scope task uart_read_expect32 $end
$upscope $end

$scope task uart_read_expect16 $end
$upscope $end

$scope task uart_get_status_expect_ok $end
$upscope $end

$scope task uart_kick_expect_ok $end
$upscope $end

$scope task check_reset_defaults $end
$upscope $end

$scope module dut $end
$var reg 1 ! rst_n_r $end
$var wire 1 " tick_us_w $end
$var wire 1 # tick_ms_w $end
$var wire 1 $ reg_en_sw_w $end
$var wire 1 % reg_wdi_src_w $end
$var wire 32 & reg_twd_ms_w [31:0] $end
$var wire 32 ' reg_trst_ms_w [31:0] $end
$var wire 16 ( reg_arm_delay_us_w [15:0] $end
$var wire 1 ) en_effective_w $end
$var wire 1 * wdo_logic_w $end
$var wire 1 + enout_logic_w $end
$var wire 1 , fault_active_w $end
$var wire 1 - last_kick_src_w $end
$var wire 2 . wd_state_w [1:0] $end

$scope module u_uart_protocol $end

$scope function reg_word $end
$upscope $end
$upscope $end
$upscope $end

$scope module host $end

$scope task uart_send_byte $end
$upscope $end

$scope task uart_send_frame $end
$upscope $end

$scope task uart_send_frame_bad_chk $end
$upscope $end

$scope task rx_capture_one_byte $end
$upscope $end

$scope task rx_expect_ok_frame_data $end
$upscope $end

$scope task rx_expect_ok_frame32 $end
$upscope $end

$scope task rx_expect_ok_frame16 $end
$upscope $end

$scope task rx_expect_err_frame $end
$upscope $end
$upscope $end
$upscope $end
$enddefinitions $end
#0
$dumpvars
0!
b11001000000 &
b11001000 '
b10010110 (
b0 .
0"
0#
0$
0%
0)
1*
0+
0,
0-
$end
#7500000
1!
#8500000
1"
#1007500000
1#
#1008500000
0#
#2007500000
1#
#2008500000
0#
#3007500000
1#
#3008500000
0#
#4007500000
1#
#4008500000
0#
#5007500000
1#
#5008500000
0#
#6007500000
1#
#6008500000
0#
#7007500000
1#
#7008500000
0#
#8007500000
1#
#8008500000
0#
#9007500000
1#
#9008500000
0#
#10007500000
1#
#10008500000
0#
#11007500000
1#
#11008500000
0#
#11318500000
b1010000 &
#12007500000
1#
#12008500000
0#
#13007500000
1#
#13008500000
0#
#14007500000
1#
#14008500000
0#
#15007500000
1#
#15008500000
0#
#16007500000
1#
#16008500000
0#
#17007500000
1#
#17008500000
0#
#18007500000
1#
#18008500000
0#
#19007500000
1#
#19008500000
0#
#20007500000
1#
#20008500000
0#
#21007500000
1#
#21008500000
0#
#22007500000
1#
#22008500000
0#
#23007500000
1#
#23008500000
0#
#24007500000
1#
#24008500000
0#
#25007500000
1#
#25008500000
0#
#26007500000
1#
#26008500000
0#
#27007500000
1#
#27008500000
0#
#28007500000
1#
#28008500000
0#
#29007500000
1#
#29008500000
0#
#29958500000
b10100 '
#30007500000
1#
#30008500000
0#
#31007500000
1#
#31008500000
0#
#32007500000
1#
#32008500000
0#
#33007500000
1#
#33008500000
0#
#34007500000
1#
#34008500000
0#
#35007500000
1#
#35008500000
0#
#36007500000
1#
#36008500000
0#
#37007500000
1#
#37008500000
0#
#38007500000
1#
#38008500000
0#
#39007500000
1#
#39008500000
0#
#40007500000
1#
#40008500000
0#
#41007500000
1#
#41008500000
0#
#42007500000
1#
#42008500000
0#
#43007500000
1#
#43008500000
0#
#44007500000
1#
#44008500000
0#
#45007500000
1#
#45008500000
0#
#46007500000
1#
#46008500000
0#
#46518500000
b1001110001000000 (
#47007500000
1#
#47008500000
0#
#48007500000
1#
#48008500000
0#
#49007500000
1#
#49008500000
0#
#50007500000
1#
#50008500000
0#
#51007500000
1#
#51008500000
0#
#52007500000
1#
#52008500000
0#
#53007500000
1#
#53008500000
0#
#54007500000
1#
#54008500000
0#
#55007500000
1#
#55008500000
0#
#56007500000
1#
#56008500000
0#
#57007500000
1#
#57008500000
0#
#58007500000
1#
#58008500000
0#
#59007500000
1#
#59008500000
0#
#60007500000
1#
#60008500000
0#
#61007500000
1#
#61008500000
0#
#62007500000
1#
#62008500000
0#
#63007500000
1#
#63008500000
0#
#64007500000
1#
#64008500000
0#
#65007500000
1#
#65008500000
0#
#65158500000
1$
1)
#65159500000
b1 .
#66007500000
1#
#66008500000
0#
#67007500000
1#
#67008500000
0#
#68007500000
1#
#68008500000
0#
#69007500000
1#
#69008500000
0#
#70007500000
1#
#70008500000
0#
#71007500000
1#
#71008500000
0#
#72007500000
1#
#72008500000
0#
#73007500000
1#
#73008500000
0#
#74007500000
1#
#74008500000
0#
#75007500000
1#
#75008500000
0#
#76007500000
1#
#76008500000
0#
#77007500000
1#
#77008500000
0#
#78007500000
1#
#78008500000
0#
#79007500000
1#
#79008500000
0#
#80007500000
1#
#80008500000
0#
#81007500000
1#
#81008500000
0#
#82007500000
1#
#82008500000
0#
#83007500000
1#
#83008500000
0#
#84007500000
1#
#84008500000
0#
#85007500000
1#
#85008500000
0#
#86007500000
1#
#86008500000
0#
#87007500000
1#
#87008500000
0#
#88007500000
1#
#88008500000
0#
#89007500000
1#
#89008500000
0#
#90007500000
1#
#90008500000
0#
#91007500000
1#
#91008500000
0#
#92007500000
1#
#92008500000
0#
#93007500000
1#
#93008500000
0#
#94007500000
1#
#94008500000
0#
#95007500000
1#
#95008500000
0#
#96007500000
1#
#96008500000
0#
#97007500000
1#
#97008500000
0#
#98007500000
1#
#98008500000
0#
#99007500000
1#
#99008500000
0#
#100007500000
1#
#100008500000
0#
#101007500000
1#
#101008500000
0#
#102007500000
1#
#102008500000
0#
#103007500000
1#
#103008500000
0#
#104007500000
1#
#104008500000
0#
#105007500000
1#
#105008500000
0#
#105159500000
1+
b10 .
#106007500000
1#
#106008500000
0#
#107007500000
1#
#107008500000
0#
#108007500000
1#
#108008500000
0#
#109007500000
1#
#109008500000
0#
#110007500000
1#
#110008500000
0#
#111007500000
1#
#111008500000
0#
#112007500000
1#
#112008500000
0#
#113007500000
1#
#113008500000
0#
#114007500000
1#
#114008500000
0#
#115007500000
1#
#115008500000
0#
#116007500000
1#
#116008500000
0#
#117007500000
1#
#117008500000
0#
#118007500000
1#
#118008500000
0#
#119007500000
1#
#119008500000
0#
#120007500000
1#
#120008500000
0#
#121007500000
1#
#121008500000
0#
#122007500000
1#
#122008500000
0#
#123007500000
1#
#123008500000
0#
#124007500000
1#
#124008500000
0#
#125007500000
1#
#125008500000
0#
#126007500000
1#
#126008500000
0#
#127007500000
1#
#127008500000
0#
#128007500000
1#
#128008500000
0#
#129007500000
1#
#129008500000
0#
#130007500000
1#
#130008500000
0#
#131007500000
1#
#131008500000
0#
#132007500000
1#
#132008500000
0#
#133007500000
1#
#133008500000
0#
#134007500000
1#
#134008500000
0#
#135007500000
1#
#135008500000
0#
#136007500000
1#
#136008500000
0#
#137007500000
1#
#137008500000
0#
#138007500000
1#
#138008500000
0#
#139007500000
1#
#139008500000
0#
#140007500000
1#
#140008500000
0#
#141007500000
1#
#141008500000
0#
#142007500000
1#
#142008500000
0#
#143007500000
1#
#143008500000
0#
#144007500000
1#
#144008500000
0#
#145007500000
1#
#145008500000
0#
#146007500000
1#
#146008500000
0#
#147007500000
1#
#147008500000
0#
#148007500000
1#
#148008500000
0#
#149007500000
1#
#149008500000
0#
#150007500000
1#
#150008500000
0#
#151007500000
1#
#151008500000
0#
#152007500000
1#
#152008500000
0#
#153007500000
1#
#153008500000
0#
#154007500000
1#
#154008500000
0#
#155007500000
1#
#155008500000
0#
#156007500000
1#
#156008500000
0#
#157007500000
1#
#157008500000
0#
#158007500000
1#
#158008500000
0#
#159007500000
1#
#159008500000
0#
#160007500000
1#
#160008500000
0#
#161007500000
1#
#161008500000
0#
#162007500000
1#
#162008500000
0#
#163007500000
1#
#163008500000
0#
#164007500000
1#
#164008500000
0#
#165007500000
1#
#165008500000
0#
#166007500000
1#
#166008500000
0#
#167007500000
1#
#167008500000
0#
#168007500000
1#
#168008500000
0#
#169007500000
1#
#169008500000
0#
#170007500000
1#
#170008500000
0#
#171007500000
1#
#171008500000
0#
#172007500000
1#
#172008500000
0#
#173007500000
1#
#173008500000
0#
#174007500000
1#
#174008500000
0#
#175007500000
1#
#175008500000
0#
#176007500000
1#
#176008500000
0#
#177007500000
1#
#177008500000
0#
#178007500000
1#
#178008500000
0#
#179007500000
1#
#179008500000
0#
#180007500000
1#
#180008500000
0#
#181007500000
1#
#181008500000
0#
#182007500000
1#
#182008500000
0#
#183007500000
1#
#183008500000
0#
#184007500000
1#
#184008500000
0#
#185007500000
1#
#185008500000
0#
#186007500000
1#
#186008500000
0#
#187007500000
1#
#187008500000
0#
#188007500000
1#
#188008500000
0#
#189007500000
1#
#189008500000
0#
#190007500000
1#
#190008500000
0#
#191007500000
1#
#191008500000
0#
#192007500000
1#
#192008500000
0#
#193007500000
1#
#193008500000
0#
#194007500000
1#
#194008500000
0#
#195007500000
1#
#195008500000
0#
#196007500000
1#
#196008500000
0#
#197007500000
1#
#197008500000
0#
#198007500000
1#
#198008500000
0#
#199007500000
1#
#199008500000
0#
#200007500000
1#
#200008500000
0#
#201007500000
1#
#201008500000
0#
#202007500000
1#
#202008500000
0#
#203007500000
1#
#203008500000
1,
0*
b11 .
0#
#204007500000
1#
#204008500000
0#
#205007500000
1#
#205008500000
0#
#206007500000
1#
#206008500000
0#
#207007500000
1#
#207008500000
0#
#208007500000
1#
#208008500000
0#
#209007500000
1#
#209008500000
0#
#210007500000
1#
#210008500000
0#
#211007500000
1#
#211008500000
0#
#212007500000
1#
#212008500000
0#
#213007500000
1#
#213008500000
0#
#214007500000
1#
#214008500000
0#
#215007500000
1#
#215008500000
0#
#216007500000
1#
#216008500000
0#
#217007500000
1#
#217008500000
0#
#218007500000
1#
#218008500000
0#
#219007500000
1#
#219008500000
0#
#220007500000
1#
#220008500000
0#
#221007500000
1#
#221008500000
0#
#222007500000
1#
#222008500000
0#
#223007500000
1#
#223008500000
0,
1*
b10 .
0#
#224007500000
1#
#224008500000
0#
#225007500000
1#
#225008500000
0#
#226007500000
1#
#226008500000
0#
#227007500000
1#
#227008500000
0#
#228007500000
1#
#228008500000
0#
#229007500000
1#
#229008500000
0#
#230007500000
1#
#230008500000
0#
#231007500000
1#
#231008500000
0#
#232007500000
1#
#232008500000
0#
#233007500000
1#
#233008500000
0#
#234007500000
1#
#234008500000
0#
#235007500000
1#
#235008500000
0#
#236007500000
1#
#236008500000
0#
#237007500000
1#
#237008500000
0#
#237009500000
0)
#237010500000
0+
b0 .
#238007500000
1#
#238008500000
0#
#239007500000
1#
#239008500000
0#
#240007500000
1#
#240008500000
0#
#241007500000
1#
#241008500000
0#
#242007500000
1#
#242008500000
0#
#243007500000
1#
#243008500000
0#
#244007500000
1#
#244008500000
0#
#245007500000
1#
#245008500000
0#
#246007500000
1#
#246008500000
0#
#247007500000
1#
#247008500000
0#
#247318500000
1%
#248007500000
1#
#248008500000
0#
#249007500000
1#
#249008500000
0#
#250007500000
1#
#250008500000
0#
#251007500000
1#
#251008500000
0#
#252007500000
1#
#252008500000
0#
#253007500000
1#
#253008500000
0#
#254007500000
1#
#254008500000
0#
#255007500000
1#
#255008500000
0#
#256007500000
1#
#256008500000
0#
#257007500000
1#
#257008500000
0#
#257649500000
1)
#257650500000
b1 .
#258007500000
1#
#258008500000
0#
#259007500000
1#
#259008500000
0#
#260007500000
1#
#260008500000
0#
#261007500000
1#
#261008500000
0#
#262007500000
1#
#262008500000
0#
#263007500000
1#
#263008500000
0#
#264007500000
1#
#264008500000
0#
#265007500000
1#
#265008500000
0#
#266007500000
1#
#266008500000
0#
#267007500000
1#
#267008500000
0#
#268007500000
1#
#268008500000
0#
#269007500000
1#
#269008500000
0#
#270007500000
1#
#270008500000
0#
#271007500000
1#
#271008500000
0#
#272007500000
1#
#272008500000
0#
#273007500000
1#
#273008500000
0#
#274007500000
1#
#274008500000
0#
#275007500000
1#
#275008500000
0#
#276007500000
1#
#276008500000
0#
#277007500000
1#
#277008500000
0#
#278007500000
1#
#278008500000
0#
#279007500000
1#
#279008500000
0#
#280007500000
1#
#280008500000
0#
#281007500000
1#
#281008500000
0#
#282007500000
1#
#282008500000
0#
#283007500000
1#
#283008500000
0#
#284007500000
1#
#284008500000
0#
#285007500000
1#
#285008500000
0#
#286007500000
1#
#286008500000
0#
#287007500000
1#
#287008500000
0#
#288007500000
1#
#288008500000
0#
#289007500000
1#
#289008500000
0#
#290007500000
1#
#290008500000
0#
#291007500000
1#
#291008500000
0#
#292007500000
1#
#292008500000
0#
#293007500000
1#
#293008500000
0#
#294007500000
1#
#294008500000
0#
#295007500000
1#
#295008500000
0#
#296007500000
1#
#296008500000
0#
#297007500000
1#
#297008500000
0#
#297650500000
1+
b10 .
#298007500000
1#
#298008500000
0#
#299007500000
1#
#299008500000
0#
#300007500000
1#
#300008500000
0#
#301007500000
1#
#301008500000
0#
#302007500000
1#
#302008500000
0#
#303007500000
1#
#303008500000
0#
#304007500000
1#
#304008500000
0#
#305007500000
1#
#305008500000
0#
#306007500000
1#
#306008500000
0#
#306961500000
b1100 &
#307007500000
1#
#307008500000
0#
#308007500000
1#
#308008500000
0#
#309007500000
1#
#309008500000
1,
0*
b11 .
0#
#310007500000
1#
#310008500000
0#
#311007500000
1#
#311008500000
0#
#312007500000
1#
#312008500000
0#
#313007500000
1#
#313008500000
0#
#314007500000
1#
#314008500000
0#
#315007500000
1#
#315008500000
0#
#316007500000
1#
#316008500000
0#
#317007500000
1#
#317008500000
0#
#318007500000
1#
#318008500000
0#
#319007500000
1#
#319008500000
0#
#320007500000
1#
#320008500000
0#
#321007500000
1#
#321008500000
0#
#322007500000
1#
#322008500000
0#
#323007500000
1#
#323008500000
0#
#324007500000
1#
#324008500000
0#
#325007500000
1#
#325008500000
0#
#326007500000
1#
#326008500000
0#
#327007500000
1#
#327008500000
0#
#328007500000
1#
#328008500000
0#
#329007500000
1#
#329008500000
0,
1*
b10 .
0#
#330007500000
1#
#330008500000
0#
#331007500000
1#
#331008500000
0#
#332007500000
1#
#332008500000
0#
#333007500000
1#
#333008500000
0#
#334007500000
1#
#334008500000
0#
#335007500000
1#
#335008500000
0#
#336007500000
1#
#336008500000
0#
#337007500000
1#
#337008500000
0#
#338007500000
1#
#338008500000
0#
#339007500000
1#
#339008500000
0#
#340007500000
1#
#340008500000
0#
#340078500000
b110010 '
#341007500000
1#
#341008500000
1,
0*
b11 .
0#
#342007500000
1#
#342008500000
0#
#343007500000
1#
#343008500000
0#
#344007500000
1#
#344008500000
0#
#345007500000
1#
#345008500000
0#
#346007500000
1#
#346008500000
0#
#347007500000
1#
#347008500000
0#
#348007500000
1#
#348008500000
0#
#349007500000
1#
#349008500000
0#
#350007500000
1#
#350008500000
0#
#351007500000
1#
#351008500000
0#
#352007500000
1#
#352008500000
0#
#353007500000
1#
#353008500000
0#
#354007500000
1#
#354008500000
0#
#355007500000
1#
#355008500000
0#
#356007500000
1#
#356008500000
0#
#357007500000
1#
#357008500000
0#
#358007500000
1#
#358008500000
0#
#359007500000
1#
#359008500000
0#
#360007500000
1#
#360008500000
0#
#361007500000
1#
#361008500000
0#
#362007500000
1#
#362008500000
0#
#363007500000
1#
#363008500000
0#
#364007500000
1#
#364008500000
0#
#365007500000
1#
#365008500000
0#
#366007500000
1#
#366008500000
0#
#367007500000
1#
#367008500000
0#
#368007500000
1#
#368008500000
0#
#369007500000
1#
#369008500000
0#
#370007500000
1#
#370008500000
0#
#371007500000
1#
#371008500000
0#
#371115500000
b11001 (
#372007500000
1#
#372008500000
0#
#373007500000
1#
#373008500000
0#
#374007500000
1#
#374008500000
0#
#375007500000
1#
#375008500000
0#
#376007500000
1#
#376008500000
0#
#377007500000
1#
#377008500000
0#
#378007500000
1#
#378008500000
0#
#379007500000
1#
#379008500000
0#
#380007500000
1#
#380008500000
0#
#381007500000
1#
#381008500000
0#
#382007500000
1#
#382008500000
0#
#383007500000
1#
#383008500000
0#
#384007500000
1#
#384008500000
0#
#385007500000
1#
#385008500000
0#
#386007500000
1#
#386008500000
0#
#387007500000
1#
#387008500000
0#
#388007500000
1#
#388008500000
0#
#389007500000
1#
#389008500000
0#
#390007500000
1#
#390008500000
0#
#391007500000
1#
#391008500000
0,
1*
b10 .
0#
#392007500000
1#
#392008500000
0#
#393007500000
1#
#393008500000
0#
#394007500000
1#
#394008500000
0#
#395007500000
1#
#395008500000
0#
#396007500000
1#
#396008500000
0#
#397007500000
1#
#397008500000
0#
#397988500000
1-
#398007500000
1#
#398008500000
0#
#399007500000
1#
#399008500000
0#
#400007500000
1#
#400008500000
0#
#401007500000
1#
#401008500000
0#
#402007500000
1#
#402008500000
0#
#403007500000
1#
#403008500000
0#
#404007500000
1#
#404008500000
0#
#405007500000
1#
#405008500000
0#
#406007500000
1#
#406008500000
0#
#407007500000
1#
#407008500000
0#
#408007500000
1#
#408008500000
0#
#409007500000
1#
#409008500000
1,
0*
b11 .
0#
#410007500000
1#
#410008500000
0#
#411007500000
1#
#411008500000
0#
#412007500000
1#
#412008500000
0#
#413007500000
1#
#413008500000
0#
#414007500000
1#
#414008500000
0#
#415007500000
1#
#415008500000
0#
#416007500000
1#
#416008500000
0#
#417007500000
1#
#417008500000
0#
#418007500000
1#
#418008500000
0#
#419007500000
1#
#419008500000
0#
#420007500000
1#
#420008500000
0#
#421007500000
1#
#421008500000
0#
#422007500000
1#
#422008500000
0#
#423007500000
1#
#423008500000
0#
#424007500000
1#
#424008500000
0#
#425007500000
1#
#425008500000
0#
#426007500000
1#
#426008500000
0#
#427007500000
1#
#427008500000
0#
#428007500000
1#
#428008500000
0#
#429007500000
1#
#429008500000
0#
#430007500000
1#
#430008500000
0#
#431007500000
1#
#431008500000
0#
#432007500000
1#
#432008500000
0#
#433007500000
1#
#433008500000
0#
#434007500000
1#
#434008500000
0#
#435007500000
1#
#435008500000
0#
#436007500000
1#
#436008500000
0#
#437007500000
1#
#437008500000
0#
#438007500000
1#
#438008500000
0#
#439007500000
1#
#439008500000
0#
#440007500000
1#
#440008500000
0#
#441007500000
1#
#441008500000
0#
#442007500000
1#
#442008500000
0#
#443007500000
1#
#443008500000
0#
#444007500000
1#
#444008500000
0#
#445007500000
1#
#445008500000
0#
#446007500000
1#
#446008500000
0#
#447007500000
1#
#447008500000
0#
#448007500000
1#
#448008500000
0#
#448319500000
0,
1*
b10 .
#449007500000
1#
#449008500000
0#
#450007500000
1#
#450008500000
0#
#451007500000
1#
#451008500000
0#
#452007500000
1#
#452008500000
0#
#453007500000
1#
#453008500000
0#
#454007500000
1#
#454008500000
0#
#455007500000
1#
#455008500000
0#
#456007500000
1#
#456008500000
0#
#457007500000
1#
#457008500000
0#
#458007500000
1#
#458008500000
0#
#459007500000
1#
#459008500000
0#
#460007500000
1#
#460008500000
1,
0*
b11 .
0#
#461007500000
1#
#461008500000
0#
#462007500000
1#
#462008500000
0#
#463007500000
1#
#463008500000
0#
#464007500000
1#
#464008500000
0#
#465007500000
1#
#465008500000
0#
#466007500000
1#
#466008500000
0#
#467007500000
1#
#467008500000
0#
#468007500000
1#
#468008500000
0#
#469007500000
1#
#469008500000
0#
#470007500000
1#
#470008500000
0#
#471007500000
1#
#471008500000
0#
#472007500000
1#
#472008500000
0#
#473007500000
1#
#473008500000
0#
#474007500000
1#
#474008500000
0#
#475007500000
1#
#475008500000
0#
#476007500000
1#
#476008500000
0#
#477007500000
1#
#477008500000
0#
#478007500000
1#
#478008500000
0#
#479007500000
1#
#479008500000
0#
#480007500000
1#
#480008500000
0#
#481007500000
1#
#481008500000
0#
#482007500000
1#
#482008500000
0#
#483007500000
1#
#483008500000
0#
